<svg width="14" height="12" viewBox="0 0 14 12" fill="none" xmlns="http://www.w3.org/2000/svg">
<path d="M4.74414 11.018L0.205078 6.47874C-0.0683594 6.20529 -0.0683594 5.74043 0.205078 5.46698L1.18945 4.48257C1.46289 4.20912 1.90039 4.20912 2.17383 4.48257L5.26367 7.54518L11.8262 0.98243C12.0996 0.708982 12.5371 0.708982 12.8105 0.98243L13.7949 1.96684C14.0684 2.24029 14.0684 2.70515 13.7949 2.9786L5.75586 11.018C5.48242 11.2914 5.01758 11.2914 4.74414 11.018Z" fill="#fff"/>
</svg>
